<?xml version="1.0" encoding="utf-8"?>
<!-- Generator: Adobe Illustrator 17.0.2, SVG Export Plug-In . SVG Version: 6.00 Build 0)  -->
<!DOCTYPE svg PUBLIC "-//W3C//DTD SVG 1.1//EN" "http://www.w3.org/Graphics/SVG/1.1/DTD/svg11.dtd">
<svg version="1.1" id="Layer_1" xmlns="http://www.w3.org/2000/svg" xmlns:xlink="http://www.w3.org/1999/xlink" x="0px" y="0px"
	 width="1024px" height="1024px" viewBox="0 0 1024 1024" enable-background="new 0 0 1024 1024" xml:space="preserve">
<path fill="#A5A2A2" d="M640,586.666c0,0-150.956-25.154-263.572,3.4C421.052,646.748,466.526,688.842,512,704c192,64,256,0,256,0
	l192,320h64C896,640,561,0,0,0c28.252,21.188,59.624,64.208,93.422,119.068C200.852,131.178,320,202.666,320,202.666
	s-89.846-14.972-182.622-8.704c21.902,38.662,44.606,80.196,67.956,122.304C321.788,280.544,512,394.666,512,394.666
	s-148.642-24.768-260.968,2.752c22.954,39.886,46.4,78.954,70.202,115.222C436.056,464.306,640,586.666,640,586.666L640,586.666z"/>
</svg>
