<?xml version="1.0" encoding="utf-8"?>
<!-- Generator: Adobe Illustrator 17.0.2, SVG Export Plug-In . SVG Version: 6.00 Build 0)  -->
<!DOCTYPE svg PUBLIC "-//W3C//DTD SVG 1.1//EN" "http://www.w3.org/Graphics/SVG/1.1/DTD/svg11.dtd">
<svg version="1.1" id="Layer_1" xmlns="http://www.w3.org/2000/svg" xmlns:xlink="http://www.w3.org/1999/xlink" x="0px" y="0px"
	 width="1024px" height="1024px" viewBox="0 0 1024 1024" enable-background="new 0 0 1024 1024" xml:space="preserve">
<g>
	<path fill="#F5F5F5" stroke="#9B2F3A" stroke-width="30" stroke-miterlimit="10" d="M970.467,108.145l-838.907,820H48.466
		l837.547-820H970.467z M514.467,252.91c0,73.688-22.657,136.156-67.969,187.391s-103.094,76.844-173.344,76.844
		c-50.688,0-90.141-14.297-118.359-42.891s-42.328-67.828-42.328-117.719c0-34.156,5.75-66.969,17.281-98.438
		c11.516-31.469,27.25-59.297,47.219-83.484c20.734-24.938,46.172-45.094,76.312-60.438s64.031-23.031,101.656-23.031
		c50.672,0,89.922,14.594,117.766,43.75C500.545,164.066,514.467,203.41,514.467,252.91z M419.466,238.676
		c0-31-5.859-56.844-17.578-77.516s-30.234-31.016-55.578-31.016c-40.344,0-73.562,23.266-99.672,69.781
		c-26.125,46.516-39.172,103.656-39.172,171.406c0,29.875,5.75,55.141,17.281,75.812c11.516,20.672,30.328,31,56.453,31
		c38.016,0,70.562-23.344,97.641-70.062C405.919,361.379,419.466,304.91,419.466,238.676z M903.467,681.91
		c0,73.688-22.656,136.156-67.969,187.391s-103.094,76.844-173.344,76.844c-50.688,0-90.141-14.297-118.359-42.891
		s-42.328-67.828-42.328-117.719c0-34.156,5.75-66.969,17.281-98.438c11.516-31.469,27.25-59.297,47.219-83.484
		c20.734-24.938,46.172-45.094,76.312-60.438s64.031-23.031,101.656-23.031c50.672,0,89.922,14.594,117.766,43.75
		C889.545,593.066,903.467,632.41,903.467,681.91z M808.467,667.676c0-31-5.859-56.844-17.578-77.516s-30.234-31.016-55.578-31.016
		c-40.344,0-73.562,23.266-99.672,69.781c-26.125,46.516-39.172,103.656-39.172,171.406c0,29.875,5.75,55.141,17.281,75.812
		c11.516,20.672,30.328,31,56.453,31c38.016,0,70.562-23.344,97.641-70.062C794.92,790.379,808.467,733.91,808.467,667.676z"/>
</g>
</svg>
