<?xml version="1.0" encoding="utf-8"?>
<!-- Generator: Adobe Illustrator 17.0.2, SVG Export Plug-In . SVG Version: 6.00 Build 0)  -->
<!DOCTYPE svg PUBLIC "-//W3C//DTD SVG 1.1//EN" "http://www.w3.org/Graphics/SVG/1.1/DTD/svg11.dtd">
<svg version="1.1" id="Layer_1" xmlns="http://www.w3.org/2000/svg" xmlns:xlink="http://www.w3.org/1999/xlink" x="0px" y="0px"
	 width="1024px" height="1024px" viewBox="0 0 1024 1024" enable-background="new 0 0 1024 1024" xml:space="preserve">
<circle fill="#9A2F3A" cx="512.34" cy="510" r="482.226"/>
<path fill="#FFFFFF" d="M736.357,281.643V780.75H333.232c-31.807,0-57.589-25.783-57.589-57.589
	c0-31.805,25.782-57.589,57.589-57.589h364.732V204.857H314.036c-42.231,0-76.786,34.554-76.786,76.786v460.714
	c0,42.232,34.555,76.786,76.786,76.786H774.75v-537.5H736.357z M352.429,703.964h345.536v38.393H352.429V703.964z"/>
</svg>
