<?xml version="1.0" encoding="utf-8"?>
<!-- Generator: Adobe Illustrator 17.0.2, SVG Export Plug-In . SVG Version: 6.00 Build 0)  -->
<!DOCTYPE svg PUBLIC "-//W3C//DTD SVG 1.1//EN" "http://www.w3.org/Graphics/SVG/1.1/DTD/svg11.dtd">
<svg version="1.1" id="Layer_1" xmlns="http://www.w3.org/2000/svg" xmlns:xlink="http://www.w3.org/1999/xlink" x="0px" y="0px"
	 width="1024px" height="1024px" viewBox="0 0 1024 1024" enable-background="new 0 0 1024 1024" xml:space="preserve">
<path fill="#A5A2A2" d="M0,320c0,176.732,143.27,320,320,320c38.262,0,74.948-6.726,108.958-19.042L512,704h128v128h128v128h128v64
	h64c35.346,0,64-28.654,64-64V768L634.624,378.624C638.142,359.616,640,340.026,640,320C640,143.268,496.73,0,320,0S0,143.268,0,320
	z M128.126,224.126c0-53.02,42.98-96,96-96s96,42.98,96,96s-42.98,96-96,96S128.126,277.146,128.126,224.126z"/>
</svg>
