<?xml version="1.0" encoding="utf-8"?>
<!-- Generator: Adobe Illustrator 17.0.2, SVG Export Plug-In . SVG Version: 6.00 Build 0)  -->
<!DOCTYPE svg PUBLIC "-//W3C//DTD SVG 1.1//EN" "http://www.w3.org/Graphics/SVG/1.1/DTD/svg11.dtd">
<svg version="1.1" id="Layer_1" xmlns="http://www.w3.org/2000/svg" xmlns:xlink="http://www.w3.org/1999/xlink" x="0px" y="0px"
	 width="476px" height="149px" viewBox="0 0 476 149" enable-background="new 0 0 476 149" xml:space="preserve">
<g>
	<path fill="#FDFDFD" d="M454.96,139.84c-100.72,0-201.44,0-302.16,0c0.013-0.359,0.036-0.718,0.036-1.077
		c0.002-42.482,0.002-84.965,0-127.447c0-0.359-0.024-0.718-0.036-1.077c100.72,0,201.44,0,302.16,0
		c0.013,0.359,0.039,0.718,0.039,1.076c0.002,42.482,0.002,84.965,0,127.447C454.999,139.122,454.973,139.481,454.96,139.84z
		 M298.173,99.959c1.142-0.243,2.058-0.508,2.936-0.892c4.322-1.888,6.363-5.792,5.319-10.18c-0.907-3.811-4.539-6.572-9.062-6.666
		c-4.757-0.098-9.517-0.021-14.275-0.029c-0.482-0.001-0.836,0.004-0.836,0.67c-0.001,0.655,0.248,0.835,0.852,0.79
		c0.557-0.042,1.119-0.012,1.679-0.008c1.467,0.01,1.801,0.293,1.926,1.803c0.108,1.312,0.195,2.631,0.198,3.947
		c0.018,7.438,0.009,14.876,0.009,22.314c0,2.449,0,2.457-2.461,2.558c-0.475,0.019-0.834,0.006-0.841,0.675
		c-0.007,0.661,0.247,0.8,0.843,0.796c3.279-0.021,6.558-0.016,9.837-0.004c0.51,0.002,0.801-0.068,0.812-0.705
		c0.012-0.701-0.318-0.795-0.876-0.761c-0.438,0.027-0.879,0.007-1.319,0.005c-1.785-0.007-2.095-0.216-2.293-1.999
		c-0.407-3.664-0.22-7.347-0.26-11.022c-0.005-0.46,0.164-0.628,0.623-0.649c2.164-0.1,4.323-0.312,5.338,2.332
		c0.306,0.796,0.968,1.458,1.483,2.17c2.293,3.172,4.442,6.449,6.919,9.485c0.476,0.584,0.954,1.153,1.852,1.148
		c4.679-0.023,9.357-0.015,14.036-0.003c0.519,0.001,0.805-0.08,0.818-0.706c0.014-0.694-0.315-0.794-0.881-0.763
		c-0.598,0.033-1.199,0.011-1.799,0.007c-1.993-0.014-2.415-0.529-1.938-2.505c0.675-2.796,1.674-5.487,2.731-8.158
		c0.186-0.469,0.391-0.701,0.936-0.698c3.679,0.022,7.358,0.014,11.037,0.009c0.388-0.001,0.668,0.055,0.821,0.5
		c1.136,3.316,2.293,6.625,3.454,9.933c0.199,0.567,0.019,0.846-0.565,0.867c-0.718,0.026-1.437,0.059-2.155,0.044
		c-0.513-0.011-0.824,0.06-0.808,0.701c0.014,0.55,0.142,0.777,0.739,0.773c3.159-0.024,6.318-0.019,9.477-0.004
		c0.509,0.003,0.706-0.15,0.703-0.682c-0.003-0.531-0.101-0.878-0.717-0.777c-1.957,0.32-2.804-0.885-3.427-2.447
		c-3.603-9.035-6.778-18.218-9.535-27.545c-0.261-0.881-0.509-1.788,0.437-2.509c0.308-0.235,0.415-0.636-0.141-0.799
		c-1-0.294-2.794,0.615-3.218,1.619c-4.241,10.06-8.48,20.12-12.724,30.179c-0.227,0.539-0.33,1.261-1.034,1.353
		c-1.761,0.23-3.446,0.298-4.824-1.263C304.443,108.84,301.375,104.46,298.173,99.959z M406.328,47.656
		c1.017-0.346,1.86-0.583,2.663-0.915c4.066-1.682,6.133-5.158,5.49-9.18c-0.617-3.858-3.671-6.737-7.897-7.158
		c-5.021-0.5-10.069-0.098-15.104-0.214c-0.567-0.013-0.656,0.252-0.653,0.726c0.003,0.447,0.019,0.781,0.618,0.738
		c0.597-0.042,1.204,0.041,1.798-0.019c1.157-0.116,1.725,0.413,1.835,1.525c0.039,0.396,0.113,0.792,0.114,1.189
		c0.02,8.239,0.032,16.477,0.043,24.716c0.003,2.312,0.001,2.33-2.282,2.398c-0.574,0.017-0.861,0.104-0.862,0.783
		c-0.001,0.69,0.301,0.773,0.871,0.769c3.16-0.019,6.319-0.025,9.479,0.005c0.641,0.006,0.825-0.204,0.822-0.822
		c-0.003-0.601-0.248-0.764-0.794-0.73c-0.518,0.032-1.046-0.047-1.558,0.017c-1.285,0.162-1.784-0.453-1.939-1.662
		c-0.374-2.906-0.271-5.823-0.275-8.737c-0.001-0.943-0.431-2.234,0.186-2.738c0.586-0.479,1.833-0.099,2.779-0.201
		c0.869-0.094,1.356,0.255,1.843,0.952c2.723,3.895,5.537,7.727,8.242,11.635c1.144,1.653,2.468,2.637,4.586,2.292
		c0.818-0.133,1.678-0.051,2.516-0.012c0.578,0.027,0.864-0.075,0.858-0.762c-0.005-0.655-0.231-0.825-0.836-0.788
		c-0.896,0.054-1.733-0.09-2.417-0.786C412.6,56.753,409.629,52.153,406.328,47.656z M189.244,86.849
		c0.367,0.433,0.525,0.61,0.673,0.795c7.351,9.165,14.698,18.333,22.057,27.492c0.308,0.383,0.527,1.104,1.114,0.928
		c0.635-0.19,0.305-0.901,0.305-1.368c0.019-9.477,0.014-18.955,0.014-28.432c0-2.481-0.001-2.502,2.5-2.603
		c0.57-0.023,0.748-0.172,0.755-0.748c0.008-0.595-0.2-0.731-0.757-0.726c-2.719,0.025-5.438,0.014-8.158,0.008
		c-0.463-0.001-0.857-0.036-0.853,0.65c0.003,0.629,0.202,0.855,0.832,0.811c0.676-0.047,1.36,0.012,2.038-0.014
		c0.819-0.032,1.3,0.348,1.42,1.137c0.15,0.984,0.35,1.976,0.356,2.965c0.043,7.117,0.042,14.235,0.055,21.352
		c0,0.154,0.017,0.32-0.232,0.362c-1.763-2.199-3.537-4.413-5.312-6.626c-5.3-6.609-10.598-13.22-15.908-19.822
		c-0.282-0.351-0.473-0.829-1.085-0.821c-1.919,0.025-3.839,0.026-5.758-0.002c-0.582-0.008-0.639,0.282-0.637,0.743
		c0.001,0.476,0.105,0.779,0.668,0.719c0.277-0.03,0.559-0.005,0.839-0.005c2.23,0.003,2.995,0.705,3.177,2.944
		c0.042,0.517,0.045,1.038,0.045,1.558c0.003,7.958,0.002,15.916,0.002,23.873c0,2.203-0.001,2.204-2.267,2.254
		c-0.467,0.01-0.94-0.122-0.957,0.67c-0.017,0.799,0.393,0.794,0.965,0.791c2.559-0.015,5.119-0.005,7.678-0.008
		c0.536-0.001,1.118,0.173,1.094-0.773c-0.023-0.905-0.602-0.667-1.068-0.674c-3.254-0.048-3.376-0.161-3.543-3.417
		c-0.01-0.2-0.014-0.4-0.014-0.599c-0.014-6.678-0.027-13.355-0.039-20.033C189.242,89.202,189.244,88.176,189.244,86.849z
		 M373.466,109.409c-0.284-0.34-0.582-0.687-0.869-1.044c-6.806-8.478-13.611-16.957-20.42-25.433
		c-0.263-0.328-0.438-0.749-0.998-0.742c-1.96,0.023-3.92,0.022-5.879,0.002c-0.578-0.006-0.508,0.36-0.501,0.715
		c0.007,0.346-0.094,0.762,0.49,0.739c0.399-0.015,0.8-0.003,1.2-0.001c1.945,0.008,2.632,0.606,2.896,2.564
		c0.069,0.512,0.085,1.035,0.085,1.553c0.005,7.999,0.003,15.999,0.003,23.998c0,2.412,0.001,2.429-2.358,2.501
		c-0.573,0.017-0.869,0.1-0.86,0.783c0.009,0.654,0.333,0.691,0.826,0.689c2.72-0.01,5.44-0.01,8.159,0
		c0.492,0.002,0.818-0.034,0.826-0.688c0.009-0.681-0.282-0.81-0.86-0.778c-0.598,0.033-1.201-0.022-1.799,0.013
		c-1.08,0.063-1.658-0.452-1.767-1.494c-0.126-1.19-0.296-2.384-0.303-3.578c-0.041-6.999-0.043-13.998-0.047-20.997
		c0-0.375-0.129-0.78,0.151-1.214c0.305,0.359,0.587,0.674,0.851,1.003c7.305,9.103,14.605,18.209,21.918,27.305
		c0.274,0.341,0.469,0.998,1.069,0.737c0.493-0.214,0.23-0.789,0.231-1.192c0.015-9.599,0.012-19.199,0.012-28.798
		c0-2.349,0-2.356,2.329-2.401c0.504-0.01,0.93,0.048,0.936-0.704c0.006-0.7-0.314-0.762-0.875-0.758
		c-2.68,0.02-5.36,0.017-8.039,0.002c-0.537-0.003-0.876,0.017-0.865,0.742c0.011,0.739,0.386,0.749,0.905,0.714
		c0.199-0.013,0.4-0.002,0.6-0.002c2.687,0.001,2.869,0.171,3.064,2.865c0.014,0.199,0.016,0.399,0.023,0.599
		c0.238,7.236,0.054,14.473,0.107,21.71C373.709,108.999,373.772,109.216,373.466,109.409z M353.902,47.594
		c-0.046,0.848,0.069,2.042,0.269,3.225c0.756,4.48,2.67,8.26,6.627,10.768c2.532,1.605,5.363,2.251,8.31,2.343
		c5.086,0.159,9.54-1.415,12.98-5.272c4.24-4.753,5.338-10.398,4.338-16.541c-0.601-3.691-2.031-7.035-5.041-9.383
		c-5.262-4.104-11.162-4.533-17.206-2.188C357.779,33.032,353.832,39.694,353.902,47.594z M429.564,82.197
		c-3.799,0-7.597-0.005-11.396,0.005c-0.505,0.001-1.137-0.238-1.115,0.738c0.022,0.992,0.686,0.645,1.169,0.698
		c0.276,0.031,0.559,0.005,0.839,0.006c2.115,0.001,2.347,0.22,2.508,2.377c0.018,0.239,0.027,0.479,0.027,0.719
		c0.014,8.356,0.028,16.713,0.04,25.069c0.003,2.35,0.001,2.363-2.406,2.454c-0.505,0.019-0.806,0.056-0.815,0.698
		c-0.01,0.683,0.284,0.775,0.86,0.774c7.277-0.014,14.554-0.009,21.832-0.009c0.356,0,0.727,0.052,0.867-0.427
		c0.367-1.262,0.749-2.52,1.132-3.778c0.097-0.319,0.018-0.579-0.289-0.685c-0.255-0.088-0.476,0.075-0.583,0.31
		c-0.647,1.421-1.98,1.763-3.305,2.086c-3.775,0.92-7.625,0.65-11.454,0.682c-1.607,0.014-1.883-0.173-2.063-1.787
		c-0.504-4.502-0.142-9.024-0.25-13.535c-0.017-0.695,0.477-0.503,0.828-0.503c3.078,0.003,6.157-0.006,9.235,0.043
		c2.556,0.041,2.584,0.072,2.712,2.629c0.032,0.64,0.301,0.672,0.803,0.699c0.587,0.031,0.634-0.249,0.631-0.716
		c-0.016-2.479-0.014-4.958-0.001-7.437c0.002-0.463-0.054-0.744-0.638-0.727c-0.537,0.015-0.851,0.121-0.778,0.732
		c0.024,0.197,0.004,0.399,0.003,0.599c-0.004,1.813-0.189,2.034-1.981,2.277c-3.264,0.443-6.548,0.144-9.819,0.269
		c-0.904,0.035-1.018-0.31-1.009-1.091c0.04-3.358,0.057-6.718-0.007-10.075c-0.02-1.026,0.362-1.344,1.303-1.334
		c2.279,0.023,4.56-0.05,6.837,0.027c1.831,0.062,3.675,0.162,5.448,0.71c0.731,0.226,1.461,0.497,1.598,1.415
		c0.051,0.342,0.186,0.649,0.58,0.633c0.446-0.018,0.416-0.439,0.465-0.727c0.16-0.944,0.216-1.911,0.435-2.839
		c0.195-0.824-0.049-1.001-0.845-0.993C437.161,82.216,433.363,82.197,429.564,82.197z M208.171,47.05
		c1.071,1.551,2.099,3.015,3.102,4.495c1.993,2.94,3.971,5.891,5.962,8.832c0.512,0.756,0.446,1.15-0.58,1.101
		c-0.718-0.034-1.44,0.019-2.158-0.012c-0.589-0.025-0.637,0.315-0.627,0.763c0.009,0.421-0.014,0.786,0.602,0.782
		c3.278-0.019,6.557-0.016,9.835-0.003c0.547,0.002,0.553-0.324,0.536-0.706c-0.017-0.378,0.113-0.931-0.529-0.816
		c-2.077,0.371-3.018-1.052-3.979-2.448c-3.125-4.536-6.231-9.086-9.373-13.61c-0.414-0.596-0.369-0.959,0.093-1.521
		c2.918-3.549,5.823-7.11,8.647-10.734c0.797-1.023,1.575-1.764,2.948-1.532c0.589,0.1,0.73-0.171,0.734-0.733
		c0.005-0.603-0.226-0.728-0.775-0.724c-2.639,0.023-5.278,0.028-7.916-0.002c-0.621-0.007-0.835,0.172-0.837,0.807
		c-0.002,0.681,0.381,0.667,0.849,0.654c0.479-0.013,0.963-0.037,1.439,0.006c0.616,0.056,1.455-0.327,1.793,0.293
		c0.351,0.645-0.289,1.272-0.666,1.807c-2.213,3.138-4.79,5.988-7.17,8.995c-0.446,0.564-0.628,0.328-0.931-0.11
		c-2.27-3.284-4.561-6.554-6.839-9.832c-0.201-0.289-0.539-0.615-0.401-0.95c0.165-0.4,0.639-0.185,0.976-0.202
		c0.598-0.03,1.2-0.03,1.798-0.002c0.481,0.023,0.746-0.075,0.713-0.646c-0.028-0.484-0.026-0.826-0.686-0.82
		c-3.158,0.028-6.317,0.021-9.476,0.004c-0.544-0.003-0.676,0.228-0.669,0.719c0.006,0.456,0.044,0.812,0.629,0.735
		c1.855-0.246,2.939,0.821,3.933,2.187c2.681,3.681,5.118,7.525,7.705,11.268c0.449,0.65,0.146,0.964-0.222,1.402
		c-3.478,4.139-6.523,8.58-9.039,13.363c-0.623,1.183-1.327,1.829-2.683,1.614c-0.572-0.091-0.862,0.07-0.856,0.755
		c0.006,0.654,0.231,0.792,0.836,0.786c2.718-0.029,5.438-0.025,8.156-0.003c0.6,0.005,0.957-0.042,0.944-0.809
		c-0.012-0.719-0.36-0.762-0.898-0.736c-0.519,0.024-1.039,0.006-1.559,0.005c-1.772-0.005-1.945-0.199-1.324-1.864
		C201.963,54.904,204.866,50.923,208.171,47.05z M178.175,30.196c-3.719,0-7.437,0.002-11.156-0.002
		c-0.529-0.001-1.008-0.09-1.009,0.749c-0.001,0.894,0.561,0.683,1.041,0.697c0.519,0.015,1.043,0.041,1.559-0.004
		c1.131-0.1,1.619,0.489,1.708,1.524c0.079,0.914,0.189,1.83,0.19,2.745c0.015,7.637,0.009,15.274,0.009,22.912
		c0,2.465,0.002,2.492-2.427,2.638c-0.622,0.037-0.697,0.29-0.708,0.808c-0.012,0.569,0.167,0.754,0.751,0.753
		c7.117-0.018,14.235-0.011,21.352-0.011c0.357,0,0.683,0.041,0.819-0.459c0.336-1.231,0.747-2.44,1.107-3.665
		c0.062-0.211,0.126-0.508-0.148-0.63c-0.288-0.129-0.565-0.026-0.708,0.265c-0.755,1.54-2.264,1.796-3.693,2.107
		c-3.51,0.763-7.081,0.499-10.633,0.532c-1.631,0.015-1.92-0.235-2.09-1.899c-0.435-4.267-0.112-8.548-0.229-12.821
		c-0.018-0.661,0.293-0.681,0.793-0.677c2.998,0.027,5.997,0.005,8.995,0.054c2.539,0.041,2.553,0.073,2.687,2.498
		c0.027,0.485,0.108,0.722,0.661,0.715c0.551-0.007,0.777-0.154,0.769-0.749c-0.029-2.359-0.037-4.719,0.003-7.077
		c0.012-0.69-0.284-0.781-0.857-0.768c-0.964,0.022-0.534,0.736-0.544,1.133c-0.052,1.928-0.124,2.083-2.045,2.337
		c-3.263,0.431-6.549,0.124-9.822,0.23c-0.714,0.023-0.63-0.394-0.629-0.839c0.003-3.399,0.025-6.798-0.015-10.196
		c-0.01-0.795,0.293-1.081,1.029-1.084c1.639-0.007,3.278-0.06,4.915-0.033c2.313,0.038,4.637,0.018,6.903,0.6
		c0.901,0.231,1.806,0.487,2.01,1.602c0.057,0.309,0.197,0.552,0.539,0.511c0.342-0.041,0.395-0.354,0.438-0.631
		c0.139-0.907,0.223-1.826,0.417-2.722c0.184-0.849,0.056-1.184-0.945-1.166C185.533,30.234,181.854,30.196,178.175,30.196z
		 M238.241,30.196c-3.758,0-7.516,0.008-11.273-0.008c-0.592-0.003-0.968,0.03-0.956,0.807c0.012,0.814,0.524,0.637,0.969,0.647
		c3.381,0.077,3.456,0.15,3.535,3.585c0.003,0.12,0,0.24,0.001,0.36c0.013,7.715,0.028,15.43,0.04,23.145
		c0.004,2.548,0.002,2.575-2.468,2.724c-0.624,0.038-0.695,0.292-0.706,0.808c-0.013,0.57,0.168,0.754,0.751,0.752
		c7.116-0.018,14.232-0.012,21.348-0.011c0.358,0,0.69,0.041,0.828-0.452c0.342-1.228,0.746-2.439,1.106-3.662
		c0.063-0.214,0.125-0.513-0.141-0.637c-0.28-0.131-0.567-0.041-0.711,0.254c-0.75,1.54-2.251,1.804-3.682,2.114
		c-3.47,0.751-7,0.505-10.511,0.533c-1.812,0.015-2.066-0.203-2.239-1.999c-0.406-4.227-0.117-8.467-0.221-12.699
		c-0.015-0.624,0.237-0.707,0.769-0.703c2.478,0.023,4.957,0.003,7.436,0.013c1.117,0.005,2.234,0.001,3.345,0.194
		c0.668,0.116,0.999,0.42,0.943,1.118c-0.028,0.358-0.003,0.719-0.005,1.079c-0.003,0.437-0.099,0.872,0.618,0.87
		c0.644-0.002,0.809-0.23,0.801-0.843c-0.031-2.318-0.045-4.638,0.006-6.955c0.017-0.784-0.361-0.822-0.947-0.796
		c-0.795,0.036-0.453,0.629-0.462,0.975c-0.057,2.199-0.037,2.254-2.235,2.52c-3.224,0.39-6.468,0.112-9.703,0.195
		c-0.777,0.02-0.544-0.528-0.545-0.906c-0.013-3.318,0.037-6.637-0.034-9.954c-0.021-0.993,0.373-1.279,1.232-1.28
		c1.959-0.002,3.919-0.056,5.876,0.001c1.952,0.056,3.916,0.083,5.821,0.606c0.898,0.247,1.795,0.52,1.959,1.654
		c0.038,0.262,0.193,0.468,0.469,0.451c0.414-0.026,0.456-0.371,0.504-0.695c0.133-0.908,0.229-1.825,0.42-2.721
		c0.171-0.804,0.033-1.117-0.9-1.103C245.598,30.229,241.919,30.196,238.241,30.196z M249.758,97.268
		c0,2.43-0.106,5.911,0.027,9.383c0.169,4.425,2.779,7.775,6.964,9.236c2.457,0.858,4.973,1.009,7.559,0.719
		c6.86-0.77,11.289-5.518,11.365-12.388c0.066-6.035,0.039-12.071,0.051-18.107c0.004-2.365,0-2.389,2.387-2.452
		c0.619-0.016,0.831-0.181,0.836-0.813c0.005-0.684-0.381-0.655-0.847-0.654c-2.678,0.007-5.357,0.009-8.035-0.002
		c-0.512-0.002-0.902-0.039-0.893,0.711c0.008,0.703,0.316,0.776,0.874,0.749c0.678-0.033,1.36,0.014,2.038-0.011
		c0.824-0.031,1.265,0.382,1.422,1.148c0.096,0.469,0.213,0.941,0.236,1.415c0.297,6.029,0.361,12.063,0.101,18.091
		c-0.195,4.524-1.988,8.113-6.595,9.707c-1.882,0.651-3.83,0.799-5.794,0.597c-4.27-0.439-7.007-2.897-7.942-7.09
		c-0.244-1.093-0.347-2.206-0.348-3.327c-0.001-5.956,0-11.913,0-17.869c0-2.565-0.001-2.587,2.547-2.652
		c0.611-0.016,0.827-0.162,0.835-0.802c0.008-0.673-0.336-0.668-0.819-0.666c-3.278,0.011-6.556,0.009-9.834,0.001
		c-0.476-0.001-0.843-0.01-0.839,0.665c0.004,0.644,0.235,0.852,0.848,0.794c0.436-0.041,0.879-0.008,1.318-0.008
		c1.942,0.001,2.168,0.218,2.337,2.154C249.86,89.268,249.644,92.747,249.758,97.268z M314.996,43.333
		c0,2.758,0.077,5.519-0.017,8.273c-0.18,5.286-2.752,8.718-7.271,9.893c-1.687,0.438-3.406,0.498-5.119,0.298
		c-3.837-0.447-6.467-2.78-7.392-6.495c-0.281-1.127-0.361-2.282-0.359-3.447c0.011-5.917,0.005-11.834,0.005-17.751
		c0-2.382,0-2.387,2.382-2.457c0.454-0.013,0.856,0.06,0.839-0.644c-0.015-0.611-0.171-0.827-0.814-0.821
		c-3.158,0.03-6.317,0.028-9.475,0.002c-0.6-0.005-0.841,0.121-0.842,0.783c-0.001,0.649,0.291,0.708,0.799,0.683
		c0.598-0.029,1.203,0.035,1.798-0.016c1.07-0.092,1.574,0.467,1.674,1.434c0.106,1.031,0.178,2.07,0.181,3.107
		c0.017,5.437-0.014,10.874,0.014,16.312c0.03,5.876,2.717,9.577,7.929,10.949c2.309,0.608,4.656,0.663,7.01,0.274
		c6.315-1.045,10.207-5.319,10.366-11.711c0.147-5.913,0.051-11.832,0.059-17.749c0.003-2.468,0-2.479,2.405-2.596
		c0.454-0.022,0.769-0.042,0.727-0.631c-0.033-0.464,0.016-0.845-0.665-0.838c-2.718,0.03-5.437,0.026-8.156,0.002
		c-0.574-0.005-0.645,0.268-0.646,0.734c-0.001,0.455,0.036,0.783,0.625,0.73c0.436-0.039,0.879-0.007,1.319-0.007
		c1.974,0.001,2.225,0.243,2.435,2.228C315.14,37.019,314.996,40.178,314.996,43.333z M384.166,100.284
		c0,0.599-0.048,1.203,0.007,1.796c0.575,6.135,3.354,10.832,9.227,13.154c6.641,2.625,13.228,1.764,19.678-0.917
		c0.351-0.146,0.577-0.357,0.594-0.794c0.047-1.236,0.144-2.47,0.209-3.705c0.019-0.358,0.049-0.771-0.467-0.803
		c-0.474-0.03-0.603,0.342-0.648,0.709c-0.167,1.352-0.997,2.25-2.069,2.932c-5.123,3.257-13.571,3.449-18.826-2.153
		c-5.733-6.112-5.426-17.371,0.564-23.238c4.421-4.329,12.321-5.638,17.459-2.885c0.853,0.457,1.689,0.95,1.817,2.057
		c0.037,0.317,0.029,0.66,0.506,0.642c0.519-0.02,0.517-0.395,0.549-0.759c0.074-0.835,0.109-1.676,0.242-2.502
		c0.124-0.772-0.15-1.108-0.891-1.354c-3.904-1.296-7.863-1.637-11.925-0.942C390.708,83.143,384.116,90.822,384.166,100.284z
		 M272.803,63.97c2.724-0.07,5.41-0.414,8.029-1.189c3.855-1.14,4.096-1.478,4.012-5.5c-0.001-0.04,0.004-0.08-0.001-0.12
		c-0.037-0.298,0.087-0.703-0.356-0.776c-0.45-0.075-0.626,0.213-0.685,0.631c-0.225,1.58-1.279,2.534-2.574,3.254
		c-3.116,1.732-6.482,2.285-9.956,1.668c-7.201-1.281-11.692-6.798-11.873-14.386c-0.206-8.618,4.728-15.011,12.696-16.327
		c3.003-0.496,5.984-0.322,8.762,1.103c0.832,0.427,1.761,0.83,1.843,2.005c0.023,0.33,0.074,0.797,0.6,0.703
		c0.434-0.077,0.485-0.468,0.516-0.841c0.07-0.836,0.121-1.674,0.233-2.504c0.084-0.622-0.127-0.905-0.739-1.106
		c-1.828-0.601-3.68-1.045-5.597-1.239c-10.729-1.084-21.315,5.798-21.862,17.55c-0.312,6.718,2.285,12.488,8.445,15.345
		C266.989,63.489,269.866,63.883,272.803,63.97z M334.833,46.48c0,4.6-0.017,9.2,0.015,13.799c0.006,0.869-0.256,1.251-1.158,1.204
		c-0.957-0.05-1.921,0.027-2.879-0.025c-0.639-0.035-0.707,0.268-0.709,0.786c-0.002,0.528,0.092,0.778,0.716,0.773
		c4-0.028,8-0.028,11.999,0c0.642,0.004,0.809-0.199,0.805-0.815c-0.004-0.585-0.193-0.783-0.762-0.737
		c-0.477,0.039-0.959,0.007-1.439,0.007c-2.747,0-2.929-0.172-3.09-2.936c-0.009-0.16-0.004-0.32-0.011-0.48
		c-0.206-4.516-0.091-9.034-0.111-13.551c-0.017-3.84,0.012-7.68-0.016-11.519c-0.006-0.76,0.088-1.147,1.016-1.129
		c1.68,0.033,3.366,0.04,5.018,0.304c1.945,0.311,4.043,0.449,5.087,2.592c0.145,0.299,0.433,0.338,0.725,0.247
		c0.452-0.141,0.331-0.533,0.25-0.801c-0.336-1.105-0.76-2.183-1.074-3.293c-0.164-0.581-0.461-0.722-1.025-0.721
		c-7.8,0.016-15.599,0.012-23.399,0.009c-0.416,0-0.759,0.002-0.917,0.532c-0.341,1.146-0.772,2.265-1.124,3.409
		c-0.082,0.267-0.232,0.657,0.181,0.841c0.409,0.182,0.712-0.011,0.881-0.378c0.582-1.263,1.726-1.712,2.942-2.035
		c2.258-0.599,4.572-0.636,6.89-0.7c0.93-0.026,1.22,0.22,1.21,1.179C334.805,37.52,334.833,42,334.833,46.48z M240.118,84.2
		c0.002,0,0.004,0,0.006,0c0-0.44-0.039-0.884,0.01-1.319c0.066-0.594-0.199-0.87-0.741-1.019
		c-4.938-1.359-9.616-0.987-13.694,2.361c-4.437,3.642-3.968,10.253,0.851,13.396c1.412,0.921,2.966,1.542,4.525,2.155
		c1.928,0.759,3.887,1.44,5.641,2.593c2.16,1.42,3.211,3.425,3.11,5.968c-0.105,2.662-1.576,4.494-3.94,5.545
		c-3.799,1.689-7.549,1.316-11.175-0.581c-0.978-0.512-1.727-1.293-1.968-2.44c-0.093-0.444-0.201-0.938-0.786-0.841
		c-0.611,0.102-0.509,0.631-0.441,1.062c0.186,1.183,0.452,2.356,0.574,3.544c0.062,0.604,0.362,0.809,0.849,0.969
		c2.024,0.666,4.111,1.037,6.226,1.14c3.525,0.17,6.811-0.596,9.713-2.73c4.827-3.549,5.433-11.909-0.936-15.232
		c-1.205-0.629-2.435-1.188-3.695-1.694c-2.033-0.816-4.125-1.503-5.989-2.693c-2.008-1.282-3.183-3.061-2.94-5.498
		c0.251-2.515,1.656-4.267,3.978-5.255c2.198-0.935,4.446-0.828,6.691-0.203c1.401,0.39,2.796,0.83,3.115,2.564
		c0.059,0.32,0.291,0.482,0.617,0.415c0.265-0.055,0.393-0.265,0.397-0.526C240.124,85.32,240.118,84.76,240.118,84.2z
		 M439.152,32.176c0.004,0,0.007,0,0.011,0c0-0.44-0.035-0.883,0.009-1.318c0.055-0.548-0.208-0.798-0.692-0.93
		c-4.715-1.295-9.216-1.015-13.155,2.145c-4.713,3.781-4.164,10.387,1.025,13.473c1.688,1.004,3.532,1.658,5.35,2.367
		c1.6,0.624,3.195,1.26,4.577,2.311c3.87,2.944,3.458,8.477-0.864,10.702c-3.773,1.941-7.563,1.538-11.247-0.336
		c-1.026-0.522-1.761-1.362-1.975-2.566c-0.075-0.424-0.286-0.798-0.801-0.658c-0.449,0.122-0.421,0.532-0.364,0.896
		c0.167,1.065,0.439,2.123,0.493,3.193c0.049,0.955,0.53,1.282,1.346,1.51c2.05,0.574,4.137,0.955,6.254,0.977
		c3.31,0.035,6.378-0.78,9.062-2.859c4.321-3.348,5.123-11.316-1.055-14.623c-1.021-0.547-2.064-1.031-3.131-1.477
		c-2.093-0.876-4.284-1.534-6.227-2.746c-2.05-1.28-3.308-3.043-3.02-5.55c0.284-2.474,1.703-4.171,4.006-5.087
		c2.298-0.914,4.622-0.707,6.921,0.015c1.173,0.368,2.254,0.883,2.488,2.293c0.054,0.328,0.261,0.507,0.581,0.462
		c0.344-0.048,0.405-0.337,0.407-0.633C439.154,33.216,439.152,32.696,439.152,32.176z M171.077,99.398c0.025,0,0.051,0,0.076,0
		c0,4.078,0,8.155,0,12.233c0,2.509,0.001,2.528-2.492,2.627c-0.556,0.022-0.765,0.147-0.763,0.738
		c0.002,0.58,0.187,0.746,0.756,0.742c3.278-0.023,6.556-0.022,9.834,0c0.593,0.004,0.868-0.123,0.859-0.788
		c-0.009-0.649-0.341-0.699-0.838-0.683c-0.639,0.022-1.28-0.013-1.919,0.007c-0.911,0.03-1.445-0.391-1.559-1.288
		c-0.136-1.067-0.327-2.138-0.332-3.208c-0.041-7.795-0.043-15.589-0.055-23.384c-0.004-2.591-0.002-2.609,2.566-2.736
		c0.553-0.027,0.764-0.162,0.773-0.748c0.01-0.615-0.247-0.724-0.782-0.721c-3.318,0.017-6.636,0.019-9.954-0.001
		c-0.573-0.004-0.748,0.18-0.75,0.753c-0.002,0.624,0.281,0.732,0.805,0.71c0.678-0.028,1.361,0.025,2.038-0.014
		c0.934-0.055,1.435,0.375,1.546,1.275c0.083,0.671,0.178,1.347,0.181,2.021C171.085,91.088,171.077,95.243,171.077,99.398z"/>
	<path fill="#9C252E" d="M152.8,10.24c0.013,0.359,0.036,0.718,0.036,1.077c0.002,42.482,0.002,84.965,0,127.447
		c0,0.359-0.024,0.718-0.036,1.077c-47.146,0-94.293-0.004-141.439,0.029c-1.013,0.001-1.146-0.254-1.145-1.188
		c0.028-42.428,0.028-84.855,0-127.283c-0.001-0.934,0.132-1.188,1.145-1.187C58.507,10.244,105.654,10.24,152.8,10.24z
		 M37.56,77.552c0,11.917,0.001,23.835-0.001,35.752c0,1.569-0.384,2.006-1.946,2.08c-1.396,0.066-2.796,0.074-4.195,0.082
		c-2.353,0.012-2.298,0.005-2.373,2.411c-0.034,1.075,0.238,1.393,1.362,1.391c19.635-0.038,39.271-0.027,58.906-0.027
		c0.24,0,0.483-0.026,0.719,0.004c0.454,0.059,0.641-0.185,0.757-0.571c1.058-3.513,2.139-7.018,3.164-10.541
		c0.168-0.579,0.337-1.353-0.512-1.628c-0.795-0.257-1.437,0.059-1.736,0.853c-0.764,2.031-2.378,3.129-4.243,3.981
		c-2.865,1.309-5.917,1.909-9.004,2.333c-8.984,1.235-18.024,0.978-27.053,0.925c-2.494-0.015-3.401-0.857-3.947-3.31
		c-0.489-2.195-0.663-4.435-0.678-6.666c-0.071-10.277-0.066-20.554-0.111-30.831c-0.003-0.73,0.127-1.045,0.965-1.039
		c8.236,0.056,16.473,0.061,24.71,0.101c2.037,0.01,4.077,0.088,6.08,0.518c1.593,0.341,2.078,0.955,2.094,2.568
		c0.011,1.08,0.002,2.16,0.002,3.239c0,2.354,0.001,2.305,2.366,2.367c0.949,0.025,1.191-0.248,1.185-1.187
		c-0.041-6.478-0.022-12.957-0.022-19.436c0-2.764,0.001-2.746-2.785-2.586c-0.569,0.033-0.765,0.198-0.754,0.768
		c0.029,1.519,0.01,3.039,0.009,4.559c-0.001,2.275-0.56,3.049-2.784,3.682c-2.437,0.694-4.955,0.844-7.467,0.97
		c-7.471,0.374-14.948,0.197-22.423,0.266c-0.924,0.009-1.192-0.209-1.188-1.167c0.038-9.678,0.023-19.356,0.023-29.033
		c0-2.481,0.249-2.743,2.761-2.897c0.159-0.01,0.32-0.004,0.48-0.005c6.356-0.049,12.713-0.126,19.068,0.096
		c4.317,0.151,8.619,0.483,12.812,1.598c2.493,0.663,4.903,1.479,5.137,4.678c0.037,0.508,0.41,0.866,0.941,0.963
		c0.404,0.073,0.817,0.062,1.087-0.315c0.313-0.437,0.367-0.967,0.441-1.478c0.431-2.964,0.764-5.945,1.314-8.886
		c0.237-1.27-0.217-1.312-1.219-1.311c-20.435,0.022-40.871,0.016-61.306,0.016c-2.908,0-2.883-0.001-2.817,2.896
		c0.016,0.686,0.226,0.895,0.894,0.886c2.159-0.031,4.319-0.013,6.478-0.011c2.824,0.003,3.64,0.697,4.152,3.515
		c0.653,3.598,0.599,7.246,0.629,10.873C37.611,58.516,37.56,68.034,37.56,77.552z M125.24,71.353
		c0-11.598-0.001-23.196,0.001-34.794c0-1.395,0.353-1.799,1.737-1.86c1.477-0.065,2.956-0.078,4.434-0.085
		c2.642-0.012,2.597-0.004,2.652-2.604c0.02-0.945-0.241-1.196-1.188-1.192c-8.758,0.037-17.517,0.022-26.276,0.022
		c-2.569,0-2.523,0.001-2.584,2.517c-0.023,0.968,0.195,1.311,1.231,1.279c2.396-0.072,4.797-0.001,7.195,0.007
		c1.384,0.005,2.252,0.719,2.662,1.993c0.219,0.68,0.384,1.385,0.493,2.092c0.497,3.211,0.508,6.453,0.51,9.688
		c0.016,21.717,0.009,43.433,0.006,65.15c0,1.265-0.4,1.723-1.697,1.8c-1.395,0.083-2.796,0.091-4.194,0.099
		c-2.602,0.014-2.549,0.005-2.612,2.637c-0.024,0.99,0.314,1.159,1.21,1.156c8.678-0.031,17.357-0.019,26.036-0.019
		c2.843,0,2.804,0,2.806-2.792c0.001-0.837-0.296-0.995-1.037-0.991c-2.478,0.012-4.956-0.049-7.434-0.051
		c-1.194-0.001-1.975-0.586-2.412-1.632c-0.275-0.658-0.494-1.353-0.631-2.052c-0.829-4.219-0.861-8.503-0.891-12.773
		C125.195,89.75,125.24,80.551,125.24,71.353z"/>
	<path fill="#9C252E" d="M454.96,139.84c0.013-0.359,0.039-0.718,0.039-1.076c0.002-42.482,0.002-84.965,0-127.447
		c0-0.359-0.025-0.718-0.039-1.076c3,0,6,0.016,9-0.015c0.516-0.005,0.707,0.099,0.605,0.616c-0.031,0.154-0.005,0.319-0.005,0.479
		c0,42.48-0.003,84.96,0.022,127.44c0.001,0.9-0.2,1.126-1.103,1.105C460.641,139.797,457.8,139.84,454.96,139.84z"/>
	<path fill="#201D21" d="M298.173,99.959c3.202,4.502,6.27,8.881,9.822,12.904c1.378,1.561,3.063,1.493,4.824,1.263
		c0.704-0.092,0.807-0.814,1.034-1.353c4.243-10.059,8.483-20.119,12.724-30.179c0.423-1.004,2.217-1.913,3.218-1.619
		c0.556,0.163,0.449,0.564,0.141,0.799c-0.946,0.721-0.698,1.628-0.437,2.509c2.758,9.327,5.932,18.51,9.535,27.545
		c0.623,1.562,1.47,2.767,3.427,2.447c0.616-0.101,0.714,0.246,0.717,0.777c0.003,0.533-0.195,0.685-0.703,0.682
		c-3.159-0.016-6.318-0.02-9.477,0.004c-0.596,0.005-0.725-0.223-0.739-0.773c-0.016-0.641,0.296-0.712,0.808-0.701
		c0.718,0.016,1.437-0.017,2.155-0.044c0.584-0.021,0.764-0.301,0.565-0.867c-1.161-3.308-2.318-6.617-3.454-9.933
		c-0.153-0.446-0.433-0.501-0.821-0.5c-3.679,0.005-7.358,0.013-11.037-0.009c-0.545-0.003-0.75,0.229-0.936,0.698
		c-1.058,2.671-2.056,5.362-2.731,8.158c-0.477,1.976-0.055,2.491,1.938,2.505c0.6,0.004,1.201,0.025,1.799-0.007
		c0.567-0.031,0.895,0.069,0.881,0.763c-0.013,0.626-0.299,0.707-0.818,0.706c-4.679-0.013-9.357-0.02-14.036,0.003
		c-0.899,0.004-1.376-0.565-1.852-1.148c-2.477-3.037-4.626-6.313-6.919-9.485c-0.515-0.712-1.177-1.374-1.483-2.17
		c-1.015-2.644-3.174-2.432-5.338-2.332c-0.46,0.021-0.628,0.189-0.623,0.649c0.04,3.676-0.148,7.359,0.26,11.022
		c0.198,1.783,0.508,1.992,2.293,1.999c0.44,0.002,0.881,0.022,1.319-0.005c0.559-0.034,0.888,0.06,0.876,0.761
		c-0.011,0.637-0.302,0.707-0.812,0.705c-3.279-0.012-6.558-0.017-9.837,0.004c-0.596,0.004-0.85-0.134-0.843-0.796
		c0.007-0.67,0.366-0.656,0.841-0.675c2.462-0.101,2.461-0.109,2.461-2.558c0-7.438,0.01-14.876-0.009-22.314
		c-0.003-1.316-0.09-2.635-0.198-3.947c-0.125-1.511-0.458-1.793-1.926-1.803c-0.56-0.004-1.122-0.034-1.679,0.008
		c-0.604,0.045-0.853-0.135-0.852-0.79c0.001-0.667,0.354-0.671,0.836-0.67c4.759,0.009,9.519-0.069,14.275,0.029
		c4.523,0.094,8.155,2.855,9.062,6.666c1.044,4.388-0.997,8.291-5.319,10.18C300.231,99.45,299.315,99.715,298.173,99.959z
		 M290.363,91.599c0,2.198-0.002,4.397,0.001,6.595c0.001,0.421-0.129,0.903,0.596,0.889c2.193-0.041,4.39,0.105,6.549-0.488
		c3.723-1.023,5.639-3.276,5.643-6.735c0.005-3.839-2.09-6.615-5.721-7.559c-2.043-0.531-4.129-0.318-6.201-0.31
		c-0.714,0.003-0.89,0.463-0.88,1.133C290.384,87.282,290.363,89.44,290.363,91.599z M326.641,86.389
		c-2.199,5.05-4.242,9.817-6.103,14.731c3.668,0,7.208,0,10.898,0C329.851,96.25,328.29,91.456,326.641,86.389z"/>
	<path fill="#201D21" d="M406.328,47.656c3.301,4.497,6.272,9.097,10.126,13.021c0.684,0.696,1.521,0.84,2.417,0.786
		c0.605-0.037,0.831,0.133,0.836,0.788c0.006,0.688-0.28,0.789-0.858,0.762c-0.838-0.039-1.698-0.122-2.516,0.012
		c-2.117,0.345-3.442-0.639-4.586-2.292c-2.705-3.908-5.519-7.74-8.242-11.635c-0.487-0.697-0.974-1.046-1.843-0.952
		c-0.945,0.102-2.192-0.278-2.779,0.201c-0.616,0.503-0.187,1.794-0.186,2.738c0.004,2.914-0.1,5.83,0.275,8.737
		c0.156,1.209,0.654,1.824,1.939,1.662c0.512-0.064,1.04,0.015,1.558-0.017c0.546-0.034,0.791,0.129,0.794,0.73
		c0.003,0.618-0.181,0.828-0.822,0.822c-3.159-0.03-6.319-0.024-9.479-0.005c-0.57,0.003-0.872-0.079-0.871-0.769
		c0.001-0.679,0.288-0.766,0.862-0.783c2.283-0.068,2.285-0.085,2.282-2.398c-0.012-8.239-0.024-16.477-0.043-24.716
		c-0.001-0.396-0.075-0.793-0.114-1.189c-0.11-1.112-0.677-1.641-1.835-1.525c-0.594,0.06-1.201-0.023-1.798,0.019
		c-0.599,0.043-0.615-0.291-0.618-0.738c-0.004-0.474,0.086-0.739,0.653-0.726c5.035,0.116,10.083-0.286,15.104,0.214
		c4.226,0.421,7.28,3.3,7.897,7.158c0.643,4.022-1.423,7.498-5.49,9.18C408.188,47.073,407.345,47.31,406.328,47.656z
		 M398.688,39.399c0,2.157-0.001,4.314,0.001,6.47c0,0.424-0.123,0.87,0.609,0.861c2.353-0.027,4.708,0.079,6.992-0.689
		c3.17-1.066,4.836-3.207,4.862-6.333c0.029-3.44-1.816-6.152-4.882-7.191c-2.131-0.722-4.331-0.54-6.521-0.519
		c-0.81,0.008-1.099,0.347-1.079,1.17C398.72,35.244,398.687,37.322,398.688,39.399z"/>
	<path fill="#201D21" d="M189.244,86.849c0,1.327-0.002,2.353,0,3.38c0.012,6.678,0.026,13.355,0.039,20.033
		c0,0.2,0.004,0.4,0.014,0.599c0.167,3.256,0.29,3.369,3.543,3.417c0.465,0.007,1.045-0.231,1.068,0.674
		c0.024,0.946-0.558,0.773-1.094,0.773c-2.559,0.003-5.119-0.008-7.678,0.008c-0.572,0.003-0.982,0.009-0.965-0.791
		c0.017-0.792,0.49-0.66,0.957-0.67c2.267-0.05,2.267-0.051,2.267-2.254c0-7.958,0.001-15.916-0.002-23.873
		c0-0.519-0.003-1.04-0.045-1.558c-0.182-2.238-0.948-2.941-3.177-2.944c-0.28,0-0.562-0.025-0.839,0.005
		c-0.563,0.06-0.667-0.242-0.668-0.719c-0.001-0.461,0.055-0.751,0.637-0.743c1.919,0.027,3.839,0.026,5.758,0.002
		c0.612-0.008,0.803,0.47,1.085,0.821c5.309,6.602,10.607,13.212,15.908,19.822c1.775,2.213,3.549,4.427,5.312,6.626
		c0.249-0.043,0.232-0.208,0.232-0.362c-0.013-7.118-0.012-14.235-0.055-21.352c-0.006-0.989-0.206-1.981-0.356-2.965
		c-0.12-0.789-0.601-1.169-1.42-1.137c-0.679,0.026-1.362-0.033-2.038,0.014c-0.63,0.044-0.829-0.182-0.832-0.811
		c-0.003-0.686,0.39-0.651,0.853-0.65c2.719,0.006,5.439,0.017,8.158-0.008c0.557-0.005,0.765,0.131,0.757,0.726
		c-0.008,0.576-0.186,0.725-0.755,0.748c-2.501,0.101-2.5,0.123-2.5,2.603c0,9.477,0.005,18.955-0.014,28.432
		c-0.001,0.467,0.329,1.178-0.305,1.368c-0.587,0.176-0.807-0.545-1.114-0.928c-7.358-9.159-14.706-18.326-22.057-27.492
		C189.768,87.459,189.611,87.282,189.244,86.849z"/>
	<path fill="#201D21" d="M373.466,109.409c0.306-0.193,0.243-0.409,0.242-0.591c-0.052-7.237,0.132-14.474-0.107-21.71
		c-0.007-0.2-0.008-0.4-0.023-0.599c-0.194-2.695-0.376-2.864-3.064-2.865c-0.2,0-0.401-0.011-0.6,0.002
		c-0.519,0.035-0.894,0.025-0.905-0.714c-0.011-0.725,0.328-0.745,0.865-0.742c2.68,0.015,5.36,0.018,8.039-0.002
		c0.561-0.004,0.881,0.058,0.875,0.758c-0.007,0.751-0.432,0.694-0.936,0.704c-2.329,0.045-2.329,0.052-2.329,2.401
		c0,9.599,0.003,19.199-0.012,28.798c-0.001,0.403,0.262,0.978-0.231,1.192c-0.6,0.261-0.795-0.397-1.069-0.737
		c-7.313-9.096-14.614-18.202-21.918-27.305c-0.264-0.329-0.546-0.644-0.851-1.003c-0.28,0.434-0.151,0.838-0.151,1.214
		c0.003,6.999,0.005,13.998,0.047,20.997c0.007,1.193,0.177,2.387,0.303,3.578c0.11,1.042,0.688,1.557,1.767,1.494
		c0.598-0.035,1.201,0.02,1.799-0.013c0.579-0.032,0.869,0.098,0.86,0.778c-0.008,0.655-0.334,0.69-0.826,0.688
		c-2.72-0.01-5.44-0.01-8.159,0c-0.493,0.002-0.818-0.035-0.826-0.689c-0.009-0.682,0.287-0.765,0.86-0.783
		c2.359-0.072,2.358-0.089,2.358-2.501c0-7.999,0.002-15.999-0.003-23.998c0-0.518-0.016-1.041-0.085-1.553
		c-0.264-1.958-0.951-2.556-2.896-2.564c-0.4-0.002-0.8-0.014-1.2,0.001c-0.584,0.022-0.483-0.393-0.49-0.739
		c-0.007-0.356-0.077-0.721,0.501-0.715c1.96,0.02,3.92,0.022,5.879-0.002c0.56-0.007,0.735,0.415,0.998,0.742
		c6.809,8.476,13.613,16.955,20.42,25.433C372.884,108.721,373.182,109.068,373.466,109.409z"/>
	<path fill="#201D21" d="M353.902,47.594c-0.07-7.9,3.877-14.563,10.276-17.046c6.043-2.345,11.944-1.916,17.206,2.188
		c3.01,2.348,4.44,5.692,5.041,9.383c1,6.143-0.099,11.788-4.338,16.541c-3.44,3.857-7.893,5.431-12.98,5.272
		c-2.946-0.092-5.777-0.738-8.31-2.343c-3.957-2.508-5.871-6.288-6.627-10.768C353.971,49.636,353.856,48.443,353.902,47.594z
		 M383.358,46.48c-0.07-1.526-0.201-3.033-0.528-4.521c-0.337-1.528-0.821-3.006-1.59-4.367c-2.757-4.883-7.038-7.133-12.54-6.656
		c-5.136,0.445-8.635,3.348-10.295,8.23c-1.706,5.014-1.6,10.084,0.352,15.005c3.275,8.26,13.591,10.868,20.089,5.084
		C382.658,55.862,383.311,51.251,383.358,46.48z"/>
	<path fill="#201D21" d="M429.564,82.197c3.799,0,7.597,0.02,11.396-0.016c0.796-0.007,1.04,0.17,0.845,0.993
		c-0.22,0.929-0.276,1.895-0.435,2.839c-0.049,0.288-0.018,0.709-0.465,0.727c-0.395,0.016-0.529-0.291-0.58-0.633
		c-0.137-0.917-0.867-1.189-1.598-1.415c-1.772-0.547-3.617-0.648-5.448-0.71c-2.277-0.077-4.558-0.003-6.837-0.027
		c-0.942-0.01-1.323,0.309-1.303,1.334c0.065,3.357,0.048,6.717,0.007,10.075c-0.009,0.781,0.106,1.125,1.009,1.091
		c3.272-0.125,6.555,0.174,9.819-0.269c1.792-0.243,1.977-0.464,1.981-2.277c0-0.2,0.02-0.402-0.003-0.599
		c-0.074-0.61,0.24-0.716,0.778-0.732c0.584-0.016,0.64,0.265,0.638,0.727c-0.012,2.479-0.014,4.958,0.001,7.437
		c0.003,0.467-0.044,0.747-0.631,0.716c-0.502-0.027-0.771-0.059-0.803-0.699c-0.128-2.557-0.157-2.588-2.712-2.629
		c-3.078-0.049-6.157-0.04-9.235-0.043c-0.351,0-0.845-0.192-0.828,0.503c0.108,4.512-0.253,9.034,0.25,13.535
		c0.181,1.614,0.456,1.801,2.063,1.787c3.83-0.032,7.68,0.237,11.454-0.682c1.325-0.323,2.658-0.665,3.305-2.086
		c0.107-0.235,0.328-0.398,0.583-0.31c0.307,0.106,0.386,0.365,0.289,0.685c-0.383,1.258-0.765,2.516-1.132,3.778
		c-0.139,0.479-0.511,0.427-0.867,0.427c-7.277,0.001-14.554-0.004-21.832,0.009c-0.576,0.001-0.87-0.091-0.86-0.774
		c0.009-0.643,0.31-0.679,0.815-0.698c2.407-0.091,2.409-0.104,2.406-2.454c-0.012-8.356-0.025-16.713-0.04-25.069
		c0-0.24-0.009-0.48-0.027-0.719c-0.161-2.158-0.393-2.377-2.508-2.377c-0.28,0-0.563,0.025-0.839-0.006
		c-0.483-0.053-1.147,0.294-1.169-0.698c-0.021-0.976,0.611-0.737,1.115-0.738C421.967,82.192,425.766,82.197,429.564,82.197z"/>
	<path fill="#201D21" d="M208.171,47.05c-3.305,3.873-6.208,7.854-7.962,12.558c-0.621,1.665-0.448,1.86,1.324,1.864
		c0.52,0.001,1.04,0.02,1.559-0.005c0.538-0.025,0.886,0.018,0.898,0.736c0.012,0.767-0.344,0.814-0.944,0.809
		c-2.719-0.022-5.438-0.026-8.156,0.003c-0.605,0.006-0.83-0.132-0.836-0.786c-0.006-0.685,0.284-0.845,0.856-0.755
		c1.355,0.215,2.06-0.431,2.683-1.614c2.516-4.783,5.561-9.224,9.039-13.363c0.368-0.438,0.671-0.752,0.222-1.402
		c-2.586-3.743-5.024-7.587-7.705-11.268c-0.995-1.366-2.078-2.433-3.933-2.187c-0.585,0.078-0.623-0.279-0.629-0.735
		c-0.007-0.492,0.125-0.722,0.669-0.719c3.158,0.018,6.317,0.024,9.476-0.004c0.66-0.006,0.658,0.336,0.686,0.82
		c0.033,0.571-0.232,0.669-0.713,0.646c-0.598-0.029-1.2-0.028-1.798,0.002c-0.337,0.017-0.81-0.198-0.976,0.202
		c-0.138,0.335,0.2,0.661,0.401,0.95c2.278,3.278,4.569,6.548,6.839,9.832c0.303,0.438,0.484,0.674,0.931,0.11
		c2.38-3.007,4.956-5.857,7.17-8.995c0.377-0.534,1.017-1.162,0.666-1.807c-0.338-0.62-1.177-0.237-1.793-0.293
		c-0.476-0.043-0.959-0.019-1.439-0.006c-0.468,0.013-0.851,0.027-0.849-0.654c0.002-0.636,0.216-0.814,0.837-0.807
		c2.638,0.03,5.278,0.025,7.916,0.002c0.548-0.005,0.779,0.121,0.775,0.724c-0.004,0.562-0.145,0.833-0.734,0.733
		c-1.373-0.232-2.15,0.509-2.948,1.532c-2.824,3.624-5.729,7.184-8.647,10.734c-0.462,0.562-0.507,0.925-0.093,1.521
		c3.142,4.525,6.248,9.074,9.373,13.61c0.961,1.396,1.902,2.819,3.979,2.448c0.643-0.115,0.512,0.439,0.529,0.816
		c0.017,0.382,0.011,0.708-0.536,0.706c-3.278-0.013-6.557-0.016-9.835,0.003c-0.616,0.003-0.593-0.362-0.602-0.782
		c-0.01-0.448,0.038-0.788,0.627-0.763c0.718,0.03,1.44-0.022,2.158,0.012c1.026,0.049,1.092-0.345,0.58-1.101
		c-1.992-2.941-3.969-5.892-5.962-8.832C210.269,50.066,209.242,48.601,208.171,47.05z"/>
	<path fill="#201D21" d="M178.175,30.196c3.679,0,7.358,0.038,11.036-0.025c1.001-0.017,1.13,0.317,0.945,1.166
		c-0.194,0.895-0.277,1.814-0.417,2.722c-0.043,0.277-0.095,0.59-0.438,0.631c-0.342,0.041-0.482-0.202-0.539-0.511
		c-0.204-1.115-1.109-1.371-2.01-1.602c-2.266-0.582-4.59-0.562-6.903-0.6c-1.638-0.027-3.277,0.027-4.915,0.033
		c-0.735,0.003-1.038,0.289-1.029,1.084c0.041,3.398,0.019,6.797,0.015,10.196c0,0.444-0.085,0.862,0.629,0.839
		c3.273-0.107,6.559,0.201,9.822-0.23c1.921-0.254,1.993-0.409,2.045-2.337c0.011-0.397-0.42-1.111,0.544-1.133
		c0.573-0.013,0.869,0.079,0.857,0.768c-0.04,2.358-0.032,4.718-0.003,7.077c0.007,0.595-0.218,0.742-0.769,0.749
		c-0.553,0.007-0.634-0.23-0.661-0.715c-0.134-2.425-0.149-2.457-2.687-2.498c-2.998-0.049-5.997-0.027-8.995-0.054
		c-0.5-0.005-0.811,0.015-0.793,0.677c0.117,4.273-0.206,8.555,0.229,12.821c0.17,1.664,0.458,1.914,2.09,1.899
		c3.552-0.033,7.123,0.231,10.633-0.532c1.43-0.311,2.938-0.566,3.693-2.107c0.143-0.291,0.42-0.394,0.708-0.265
		c0.274,0.122,0.21,0.42,0.148,0.63c-0.36,1.224-0.771,2.434-1.107,3.665c-0.137,0.5-0.462,0.459-0.819,0.459
		c-7.117,0-14.235-0.006-21.352,0.011c-0.584,0.001-0.762-0.184-0.751-0.753c0.01-0.518,0.086-0.77,0.708-0.808
		c2.429-0.146,2.427-0.173,2.427-2.638c0-7.637,0.007-15.274-0.009-22.912c-0.002-0.915-0.112-1.831-0.19-2.745
		c-0.089-1.035-0.577-1.624-1.708-1.524c-0.516,0.045-1.039,0.019-1.559,0.004c-0.48-0.013-1.042,0.197-1.041-0.697
		c0.001-0.84,0.48-0.75,1.009-0.749C170.738,30.198,174.456,30.196,178.175,30.196z"/>
	<path fill="#201D21" d="M238.241,30.196c3.678,0,7.356,0.032,11.033-0.022c0.934-0.014,1.071,0.299,0.9,1.103
		c-0.19,0.896-0.287,1.813-0.42,2.721c-0.047,0.324-0.09,0.668-0.504,0.695c-0.275,0.018-0.431-0.189-0.469-0.451
		c-0.164-1.134-1.061-1.407-1.959-1.654c-1.905-0.523-3.869-0.55-5.821-0.606c-1.957-0.056-3.917-0.002-5.876-0.001
		c-0.858,0.001-1.253,0.287-1.232,1.28c0.071,3.317,0.022,6.636,0.034,9.954c0.001,0.379-0.231,0.926,0.545,0.906
		c3.234-0.083,6.479,0.195,9.703-0.195c2.198-0.266,2.177-0.32,2.235-2.52c0.009-0.346-0.333-0.939,0.462-0.975
		c0.586-0.026,0.964,0.012,0.947,0.796c-0.05,2.318-0.036,4.637-0.006,6.955c0.008,0.613-0.157,0.841-0.801,0.843
		c-0.717,0.002-0.621-0.433-0.618-0.87c0.002-0.36-0.023-0.721,0.005-1.079c0.056-0.698-0.275-1.002-0.943-1.118
		c-1.111-0.193-2.228-0.189-3.345-0.194c-2.479-0.01-4.957,0.01-7.436-0.013c-0.531-0.005-0.784,0.078-0.769,0.703
		c0.103,4.232-0.186,8.472,0.221,12.699c0.172,1.796,0.427,2.014,2.239,1.999c3.511-0.028,7.041,0.218,10.511-0.533
		c1.431-0.31,2.932-0.574,3.682-2.114c0.144-0.296,0.431-0.385,0.711-0.254c0.266,0.124,0.204,0.423,0.141,0.637
		c-0.359,1.224-0.764,2.434-1.106,3.662c-0.137,0.494-0.469,0.452-0.828,0.452c-7.116-0.001-14.232-0.007-21.348,0.011
		c-0.583,0.001-0.764-0.182-0.751-0.752c0.011-0.516,0.082-0.771,0.706-0.808c2.471-0.149,2.472-0.176,2.468-2.724
		c-0.012-7.715-0.026-15.43-0.04-23.145c0-0.12,0.002-0.24-0.001-0.36c-0.079-3.434-0.154-3.508-3.535-3.585
		c-0.445-0.01-0.957,0.168-0.969-0.647c-0.012-0.777,0.364-0.809,0.956-0.807C230.726,30.204,234.484,30.196,238.241,30.196z"/>
	<path fill="#201D21" d="M249.758,97.268c-0.114-4.521,0.102-8-0.201-11.471c-0.169-1.936-0.395-2.152-2.337-2.154
		c-0.44,0-0.883-0.033-1.318,0.008c-0.612,0.057-0.844-0.15-0.848-0.794c-0.004-0.674,0.363-0.666,0.839-0.665
		c3.278,0.008,6.556,0.009,9.834-0.001c0.483-0.002,0.827-0.006,0.819,0.666c-0.008,0.641-0.224,0.787-0.835,0.802
		c-2.548,0.065-2.547,0.087-2.547,2.652c0,5.956-0.001,11.913,0,17.869c0,1.121,0.104,2.234,0.348,3.327
		c0.936,4.193,3.672,6.651,7.942,7.09c1.964,0.202,3.912,0.054,5.794-0.597c4.607-1.594,6.4-5.183,6.595-9.707
		c0.26-6.028,0.197-12.062-0.101-18.091c-0.023-0.475-0.14-0.947-0.236-1.415c-0.157-0.766-0.598-1.179-1.422-1.148
		c-0.679,0.026-1.36-0.021-2.038,0.011c-0.558,0.027-0.866-0.046-0.874-0.749c-0.009-0.75,0.381-0.713,0.893-0.711
		c2.678,0.011,5.357,0.009,8.035,0.002c0.466-0.001,0.853-0.029,0.847,0.654c-0.005,0.632-0.217,0.796-0.836,0.813
		c-2.387,0.063-2.382,0.087-2.387,2.452c-0.011,6.036,0.015,12.072-0.051,18.107c-0.075,6.871-4.505,11.619-11.365,12.388
		c-2.585,0.29-5.102,0.139-7.559-0.719c-4.185-1.461-6.795-4.811-6.964-9.236C249.652,103.179,249.758,99.698,249.758,97.268z"/>
	<path fill="#201D21" d="M314.996,43.333c0-3.155,0.144-6.314-0.19-9.463c-0.21-1.984-0.461-2.227-2.435-2.228
		c-0.44,0-0.882-0.032-1.319,0.007c-0.59,0.053-0.626-0.275-0.625-0.73c0.001-0.466,0.072-0.739,0.646-0.734
		c2.718,0.023,5.437,0.028,8.156-0.002c0.681-0.008,0.633,0.374,0.665,0.838c0.041,0.589-0.273,0.608-0.727,0.631
		c-2.405,0.118-2.401,0.129-2.405,2.596c-0.008,5.917,0.088,11.836-0.059,17.749c-0.159,6.392-4.051,10.666-10.366,11.711
		c-2.354,0.389-4.701,0.334-7.01-0.274c-5.212-1.372-7.898-5.073-7.929-10.949c-0.028-5.437,0.003-10.874-0.014-16.312
		c-0.003-1.036-0.074-2.076-0.181-3.107c-0.1-0.967-0.603-1.526-1.674-1.434c-0.595,0.051-1.2-0.013-1.798,0.016
		c-0.508,0.025-0.8-0.034-0.799-0.683c0.001-0.661,0.242-0.787,0.842-0.783c3.158,0.026,6.317,0.029,9.475-0.002
		c0.642-0.006,0.798,0.21,0.814,0.821c0.018,0.704-0.385,0.631-0.839,0.644c-2.382,0.069-2.382,0.075-2.382,2.457
		c0,5.917,0.006,11.834-0.005,17.751c-0.002,1.165,0.078,2.319,0.359,3.447c0.925,3.715,3.555,6.048,7.392,6.495
		c1.712,0.2,3.431,0.14,5.119-0.298c4.52-1.174,7.091-4.607,7.271-9.893C315.074,48.852,314.996,46.091,314.996,43.333z"/>
	<path fill="#201D21" d="M384.166,100.284c-0.05-9.463,6.543-17.141,16.025-18.762c4.062-0.694,8.021-0.354,11.925,0.942
		c0.742,0.246,1.016,0.583,0.891,1.354c-0.133,0.826-0.168,1.667-0.242,2.502c-0.032,0.365-0.03,0.74-0.549,0.759
		c-0.476,0.018-0.469-0.325-0.506-0.642c-0.128-1.107-0.963-1.6-1.817-2.057c-5.138-2.753-13.038-1.444-17.459,2.885
		c-5.991,5.867-6.297,17.126-0.564,23.238c5.255,5.602,13.703,5.41,18.826,2.153c1.072-0.682,1.902-1.58,2.069-2.932
		c0.045-0.367,0.175-0.739,0.648-0.709c0.516,0.033,0.485,0.446,0.467,0.803c-0.065,1.235-0.161,2.469-0.209,3.705
		c-0.017,0.436-0.243,0.648-0.594,0.794c-6.449,2.681-13.037,3.542-19.678,0.917c-5.872-2.322-8.652-7.018-9.227-13.154
		C384.118,101.487,384.166,100.883,384.166,100.284z"/>
	<path fill="#201D21" d="M272.802,63.969c-2.936-0.086-5.812-0.48-8.506-1.729c-6.16-2.857-8.758-8.627-8.445-15.345
		c0.546-11.752,11.132-18.634,21.862-17.55c1.917,0.194,3.769,0.638,5.597,1.239c0.611,0.201,0.823,0.483,0.739,1.106
		c-0.112,0.83-0.163,1.669-0.233,2.504c-0.031,0.373-0.082,0.764-0.516,0.841c-0.527,0.094-0.577-0.372-0.6-0.703
		c-0.082-1.175-1.011-1.578-1.843-2.005c-2.778-1.425-5.759-1.599-8.762-1.103c-7.968,1.316-12.902,7.709-12.696,16.327
		c0.182,7.588,4.672,13.105,11.873,14.386c3.474,0.618,6.84,0.064,9.956-1.668c1.295-0.72,2.349-1.674,2.574-3.254
		c0.06-0.419,0.236-0.706,0.685-0.631c0.443,0.074,0.319,0.478,0.356,0.776c0.005,0.039,0,0.08,0.001,0.12
		c0.085,4.022-0.157,4.36-4.012,5.5C278.212,63.556,275.527,63.901,272.802,63.969z"/>
	<path fill="#201D21" d="M334.833,46.48c0-4.48-0.028-8.96,0.022-13.439c0.011-0.959-0.28-1.204-1.21-1.179
		c-2.318,0.064-4.632,0.101-6.89,0.7c-1.216,0.323-2.361,0.771-2.942,2.035c-0.169,0.367-0.472,0.56-0.881,0.378
		c-0.413-0.184-0.263-0.574-0.181-0.841c0.351-1.143,0.783-2.262,1.124-3.409c0.157-0.529,0.501-0.532,0.917-0.532
		c7.8,0.003,15.599,0.007,23.399-0.009c0.564-0.001,0.86,0.14,1.025,0.721c0.314,1.11,0.738,2.189,1.074,3.293
		c0.081,0.267,0.202,0.66-0.25,0.801c-0.292,0.091-0.579,0.051-0.725-0.247c-1.044-2.142-3.142-2.28-5.087-2.592
		c-1.652-0.264-3.338-0.271-5.018-0.304c-0.927-0.018-1.021,0.37-1.016,1.129c0.029,3.84,0,7.68,0.016,11.519
		c0.02,4.517-0.095,9.035,0.111,13.551c0.007,0.16,0.002,0.32,0.011,0.48c0.161,2.764,0.342,2.937,3.09,2.936
		c0.48,0,0.963,0.032,1.439-0.007c0.568-0.046,0.757,0.152,0.762,0.737c0.004,0.617-0.162,0.82-0.805,0.815
		c-4-0.028-8-0.028-11.999,0c-0.624,0.004-0.719-0.246-0.716-0.773c0.002-0.518,0.07-0.82,0.709-0.786
		c0.957,0.052,1.921-0.025,2.879,0.025c0.902,0.047,1.164-0.336,1.158-1.204C334.816,55.68,334.833,51.08,334.833,46.48z"/>
	<path fill="#201D21" d="M240.118,84.2c0,0.56,0.006,1.12-0.003,1.679c-0.004,0.262-0.132,0.472-0.397,0.526
		c-0.326,0.068-0.558-0.094-0.617-0.415c-0.319-1.734-1.714-2.174-3.115-2.564c-2.244-0.624-4.493-0.732-6.691,0.203
		c-2.322,0.988-3.727,2.74-3.978,5.255c-0.243,2.437,0.932,4.216,2.94,5.498c1.864,1.19,3.956,1.878,5.989,2.693
		c1.26,0.506,2.489,1.065,3.695,1.694c6.369,3.323,5.762,11.683,0.936,15.232c-2.903,2.134-6.188,2.901-9.713,2.73
		c-2.116-0.102-4.202-0.474-6.226-1.14c-0.487-0.16-0.787-0.365-0.849-0.969c-0.122-1.188-0.388-2.362-0.574-3.544
		c-0.068-0.43-0.17-0.96,0.441-1.062c0.585-0.097,0.693,0.397,0.786,0.841c0.241,1.147,0.989,1.928,1.968,2.44
		c3.626,1.897,7.377,2.27,11.175,0.581c2.364-1.051,3.835-2.883,3.94-5.545c0.101-2.543-0.95-4.548-3.11-5.968
		c-1.754-1.152-3.713-1.834-5.641-2.593c-1.559-0.614-3.114-1.234-4.525-2.155c-4.818-3.143-5.288-9.754-0.851-13.396
		c4.079-3.348,8.757-3.721,13.694-2.361c0.541,0.149,0.807,0.425,0.741,1.019c-0.049,0.434-0.01,0.879-0.01,1.319
		C240.122,84.2,240.12,84.2,240.118,84.2z"/>
	<path fill="#201D21" d="M439.152,32.176c0,0.52,0.002,1.039-0.001,1.559c-0.002,0.296-0.063,0.585-0.407,0.633
		c-0.32,0.045-0.526-0.134-0.581-0.462c-0.233-1.41-1.315-1.925-2.488-2.293c-2.3-0.721-4.623-0.929-6.921-0.015
		c-2.302,0.916-3.722,2.613-4.006,5.087c-0.288,2.507,0.97,4.27,3.02,5.55c1.943,1.213,4.134,1.871,6.227,2.746
		c1.067,0.446,2.11,0.931,3.131,1.477c6.177,3.307,5.376,11.275,1.055,14.623c-2.684,2.079-5.752,2.894-9.062,2.859
		c-2.117-0.022-4.204-0.403-6.254-0.977c-0.816-0.228-1.297-0.556-1.346-1.51c-0.054-1.07-0.327-2.128-0.493-3.193
		c-0.057-0.365-0.085-0.774,0.364-0.896c0.515-0.14,0.726,0.235,0.801,0.658c0.214,1.204,0.949,2.044,1.975,2.566
		c3.684,1.874,7.474,2.278,11.247,0.336c4.322-2.224,4.734-7.757,0.864-10.702c-1.381-1.051-2.977-1.687-4.577-2.311
		c-1.819-0.709-3.663-1.363-5.35-2.367c-5.189-3.086-5.738-9.692-1.025-13.473c3.939-3.161,8.441-3.441,13.155-2.145
		c0.483,0.133,0.747,0.382,0.692,0.93c-0.044,0.435-0.009,0.879-0.009,1.318C439.159,32.176,439.156,32.176,439.152,32.176z"/>
	<path fill="#201D21" d="M171.077,99.398c0-4.155,0.008-8.31-0.008-12.465c-0.003-0.674-0.098-1.35-0.181-2.021
		c-0.111-0.9-0.612-1.33-1.546-1.275c-0.677,0.04-1.36-0.014-2.038,0.014c-0.524,0.022-0.807-0.086-0.805-0.71
		c0.002-0.574,0.176-0.757,0.75-0.753c3.318,0.021,6.636,0.018,9.954,0.001c0.535-0.003,0.791,0.106,0.782,0.721
		c-0.009,0.586-0.22,0.721-0.773,0.748c-2.568,0.128-2.57,0.145-2.566,2.736c0.012,7.795,0.013,15.59,0.055,23.384
		c0.006,1.07,0.197,2.141,0.332,3.208c0.114,0.897,0.648,1.318,1.559,1.288c0.639-0.021,1.28,0.014,1.919-0.007
		c0.497-0.017,0.829,0.034,0.838,0.683c0.01,0.666-0.266,0.792-0.859,0.788c-3.278-0.022-6.556-0.023-9.834,0
		c-0.569,0.004-0.754-0.162-0.756-0.742c-0.002-0.591,0.207-0.716,0.763-0.738c2.493-0.099,2.492-0.119,2.492-2.627
		c0-4.078,0-8.155,0-12.233C171.127,99.398,171.102,99.398,171.077,99.398z"/>
	<path fill="#FDFDFD" d="M37.56,77.552c0-9.518,0.051-19.036-0.026-28.553c-0.03-3.627,0.025-7.275-0.629-10.873
		c-0.512-2.819-1.328-3.513-4.152-3.515c-2.16-0.002-4.319-0.02-6.478,0.011c-0.668,0.01-0.878-0.2-0.894-0.886
		c-0.067-2.896-0.091-2.896,2.817-2.896c20.435,0,40.871,0.005,61.306-0.016c1.001-0.001,1.456,0.041,1.219,1.311
		c-0.55,2.941-0.882,5.923-1.314,8.886c-0.074,0.511-0.128,1.041-0.441,1.478c-0.27,0.377-0.682,0.388-1.087,0.315
		c-0.531-0.096-0.904-0.455-0.941-0.963c-0.234-3.199-2.644-4.015-5.137-4.678c-4.193-1.116-8.495-1.447-12.812-1.598
		c-6.355-0.223-12.711-0.146-19.068-0.096c-0.16,0.001-0.32-0.005-0.48,0.005c-2.512,0.154-2.761,0.416-2.761,2.897
		c0,9.678,0.015,19.356-0.023,29.033c-0.004,0.957,0.264,1.175,1.188,1.167c7.475-0.07,14.952,0.107,22.423-0.266
		c2.512-0.126,5.03-0.276,7.467-0.97c2.224-0.633,2.783-1.407,2.784-3.682c0.001-1.52,0.02-3.04-0.009-4.559
		c-0.011-0.57,0.186-0.736,0.754-0.768c2.785-0.16,2.785-0.178,2.785,2.586c0,6.479-0.019,12.957,0.022,19.436
		c0.006,0.939-0.236,1.211-1.185,1.187c-2.365-0.062-2.366-0.013-2.366-2.367c0-1.08,0.009-2.16-0.002-3.239
		c-0.016-1.614-0.502-2.227-2.094-2.568c-2.002-0.429-4.042-0.508-6.08-0.518c-8.237-0.04-16.473-0.045-24.71-0.101
		c-0.838-0.006-0.968,0.309-0.965,1.039c0.045,10.277,0.04,20.554,0.111,30.831c0.015,2.232,0.189,4.472,0.678,6.666
		c0.546,2.452,1.453,3.295,3.947,3.31c9.029,0.053,18.069,0.311,27.053-0.925c3.087-0.424,6.139-1.024,9.004-2.333
		c1.865-0.852,3.479-1.95,4.243-3.981c0.299-0.794,0.94-1.11,1.736-0.853c0.849,0.275,0.68,1.049,0.512,1.628
		c-1.025,3.522-2.106,7.028-3.164,10.541c-0.116,0.386-0.303,0.63-0.757,0.571c-0.236-0.031-0.479-0.004-0.719-0.004
		c-19.635,0-39.271-0.01-58.906,0.027c-1.125,0.002-1.396-0.315-1.362-1.391c0.076-2.405,0.02-2.398,2.373-2.411
		c1.399-0.007,2.798-0.016,4.195-0.082c1.562-0.074,1.946-0.511,1.946-2.08C37.561,101.387,37.56,89.47,37.56,77.552z"/>
	<path fill="#FDFDFD" d="M125.24,71.353c0,9.199-0.044,18.397,0.02,27.595c0.03,4.27,0.062,8.555,0.891,12.773
		c0.137,0.699,0.356,1.394,0.631,2.052c0.437,1.046,1.218,1.631,2.412,1.632c2.478,0.002,4.956,0.063,7.434,0.051
		c0.741-0.004,1.038,0.154,1.037,0.991c-0.002,2.792,0.037,2.792-2.806,2.792c-8.679,0-17.357-0.013-26.036,0.019
		c-0.896,0.003-1.233-0.166-1.21-1.156c0.063-2.632,0.011-2.623,2.612-2.637c1.398-0.008,2.799-0.016,4.194-0.099
		c1.296-0.077,1.697-0.535,1.697-1.8c0.003-21.717,0.01-43.433-0.006-65.15c-0.002-3.235-0.014-6.477-0.51-9.688
		c-0.109-0.706-0.275-1.411-0.493-2.092c-0.41-1.274-1.278-1.989-2.662-1.993c-2.399-0.008-4.799-0.079-7.195-0.007
		c-1.037,0.031-1.255-0.311-1.231-1.279c0.06-2.516,0.015-2.517,2.584-2.517c8.759,0,17.517,0.015,26.276-0.022
		c0.947-0.004,1.208,0.247,1.188,1.192c-0.055,2.599-0.01,2.591-2.652,2.604c-1.478,0.007-2.958,0.019-4.434,0.085
		c-1.384,0.061-1.737,0.464-1.737,1.86C125.239,48.156,125.24,59.755,125.24,71.353z"/>
	<path fill="#FDFDFD" d="M290.363,91.599c0-2.158,0.021-4.317-0.012-6.475c-0.01-0.67,0.166-1.131,0.88-1.133
		c2.072-0.008,4.158-0.221,6.201,0.31c3.631,0.944,5.726,3.72,5.721,7.559c-0.004,3.459-1.921,5.712-5.643,6.735
		c-2.159,0.593-4.356,0.447-6.549,0.488c-0.724,0.013-0.595-0.468-0.596-0.889C290.361,95.995,290.363,93.797,290.363,91.599z"/>
	<path fill="#FDFDFD" d="M326.641,86.389c1.649,5.067,3.21,9.861,4.795,14.731c-3.69,0-7.23,0-10.898,0
		C322.399,96.206,324.442,91.439,326.641,86.389z"/>
	<path fill="#FDFDFD" d="M398.687,39.399c0-2.077,0.033-4.155-0.017-6.23c-0.02-0.823,0.269-1.162,1.079-1.17
		c2.19-0.022,4.39-0.203,6.521,0.519c3.066,1.038,4.91,3.751,4.882,7.191c-0.026,3.126-1.692,5.267-4.862,6.333
		c-2.285,0.768-4.64,0.662-6.992,0.689c-0.732,0.008-0.609-0.437-0.609-0.861C398.686,43.712,398.688,41.556,398.687,39.399z"/>
	<path fill="#FDFDFD" d="M383.358,46.48c-0.047,4.771-0.7,9.382-4.513,12.776c-6.499,5.784-16.814,3.176-20.089-5.084
		c-1.951-4.921-2.057-9.991-0.352-15.005c1.66-4.882,5.159-7.785,10.295-8.23c5.503-0.477,9.783,1.773,12.54,6.656
		c0.768,1.361,1.253,2.839,1.59,4.367C383.158,43.447,383.288,44.954,383.358,46.48z"/>
</g>
</svg>
